pipelining_CPU/cpu.vcd
$version Generated by VerilatedVcd $end
$date Fri Dec 16 21:30:52 2022 $end
$timescale 1ps $end

 $scope module TOP $end
  $var wire 32 #! a0 [31:0] $end
  $var wire  1 !! clk $end
  $var wire  1 "! rst $end
  $scope module cpu $end
   $var wire  3 + ALUControlD [2:0] $end
   $var wire 32 6 ALUResultE [31:0] $end
   $var wire 32 < ALUResultM [31:0] $end
   $var wire  1 , ALUSrcD $end
   $var wire  1 * BranchD $end
   $var wire 32 0 ImmExtD [31:0] $end
   $var wire 32 } InstrF [31:0] $end
   $var wire  1 - JALRctrlD $end
   $var wire  1 ) JumpD $end
   $var wire  1 ( MemWriteD $end
   $var wire  1 5 MemWriteE $end
   $var wire 32 . PCD [31:0] $end
   $var wire 32 | PCF [31:0] $end
   $var wire 32 1 PCPlus4D [31:0] $end
   $var wire 32 9 PCPlus4E [31:0] $end
   $var wire 32 ~ PCPlus4F [31:0] $end
   $var wire 32 ? PCPlus4M [31:0] $end
   $var wire  1 $ PCSrcE $end
   $var wire 32 % PCTargetE [31:0] $end
   $var wire 32 $! RD1D [31:0] $end
   $var wire 32 %! RD2D [31:0] $end
   $var wire  5 / RdD [4:0] $end
   $var wire  5 8 RdE [4:0] $end
   $var wire  5 > RdM [4:0] $end
   $var wire  5 A RdW [4:0] $end
   $var wire 32 = ReadDataM [31:0] $end
   $var wire  1 & RegWriteD $end
   $var wire  1 3 RegWriteE $end
   $var wire  1 : RegWriteM $end
   $var wire  1 @ RegWriteW $end
   $var wire  2 ' ResultSrcD [1:0] $end
   $var wire  2 4 ResultSrcE [1:0] $end
   $var wire  2 ; ResultSrcM [1:0] $end
   $var wire 32 B ResultW [31:0] $end
   $var wire 32 '! WIDTH [31:0] $end
   $var wire 32 7 WriteDataE [31:0] $end
   $var wire 32 #! a0 [31:0] $end
   $var wire  1 !! clk $end
   $var wire  1 2 flush $end
   $var wire  1 "! rst $end
   $scope module decode $end
    $var wire  3 + ALUControlD [2:0] $end
    $var wire  1 , ALUSrcD $end
    $var wire  1 * BranchD $end
    $var wire 32 0 ImmExtD [31:0] $end
    $var wire  3 D ImmSrcD [2:0] $end
    $var wire 32 C InstrD [31:0] $end
    $var wire 32 } InstrF [31:0] $end
    $var wire  1 - JALRctrlD $end
    $var wire  1 ) JumpD $end
    $var wire  1 ( MemWriteD $end
    $var wire 32 . PCD [31:0] $end
    $var wire 32 | PCF [31:0] $end
    $var wire 32 1 PCPlus4D [31:0] $end
    $var wire 32 ~ PCPlus4F [31:0] $end
    $var wire 32 $! RD1D [31:0] $end
    $var wire 32 %! RD2D [31:0] $end
    $var wire  5 / RdD [4:0] $end
    $var wire  5 A RdW [4:0] $end
    $var wire  1 & RegWriteD $end
    $var wire  1 @ RegWriteW $end
    $var wire  2 ' ResultSrcD [1:0] $end
    $var wire 32 B ResultW [31:0] $end
    $var wire 32 '! WIDTH [31:0] $end
    $var wire 32 #! a0 [31:0] $end
    $var wire  1 !! clk $end
    $var wire  1 2 flush $end
    $scope module Reg_File $end
     $var wire  5 E A1 [4:0] $end
     $var wire  5 F A2 [4:0] $end
     $var wire  5 A A3 [4:0] $end
     $var wire 32 (! ADDRESS_WIDTH [31:0] $end
     $var wire 32 '! DATA_WIDTH [31:0] $end
     $var wire 32 $! RD1 [31:0] $end
     $var wire 32 %! RD2 [31:0] $end
     $var wire 32 B WD3 [31:0] $end
     $var wire  1 @ WE3 $end
     $var wire 32 #! a0 [31:0] $end
     $var wire  1 !! clk $end
     $var wire 32 \ ram_array[0] [31:0] $end
     $var wire 32 f ram_array[10] [31:0] $end
     $var wire 32 g ram_array[11] [31:0] $end
     $var wire 32 h ram_array[12] [31:0] $end
     $var wire 32 i ram_array[13] [31:0] $end
     $var wire 32 j ram_array[14] [31:0] $end
     $var wire 32 k ram_array[15] [31:0] $end
     $var wire 32 l ram_array[16] [31:0] $end
     $var wire 32 m ram_array[17] [31:0] $end
     $var wire 32 n ram_array[18] [31:0] $end
     $var wire 32 o ram_array[19] [31:0] $end
     $var wire 32 ] ram_array[1] [31:0] $end
     $var wire 32 p ram_array[20] [31:0] $end
     $var wire 32 q ram_array[21] [31:0] $end
     $var wire 32 r ram_array[22] [31:0] $end
     $var wire 32 s ram_array[23] [31:0] $end
     $var wire 32 t ram_array[24] [31:0] $end
     $var wire 32 u ram_array[25] [31:0] $end
     $var wire 32 v ram_array[26] [31:0] $end
     $var wire 32 w ram_array[27] [31:0] $end
     $var wire 32 x ram_array[28] [31:0] $end
     $var wire 32 y ram_array[29] [31:0] $end
     $var wire 32 ^ ram_array[2] [31:0] $end
     $var wire 32 z ram_array[30] [31:0] $end
     $var wire 32 { ram_array[31] [31:0] $end
     $var wire 32 _ ram_array[3] [31:0] $end
     $var wire 32 ` ram_array[4] [31:0] $end
     $var wire 32 a ram_array[5] [31:0] $end
     $var wire 32 b ram_array[6] [31:0] $end
     $var wire 32 c ram_array[7] [31:0] $end
     $var wire 32 d ram_array[8] [31:0] $end
     $var wire 32 e ram_array[9] [31:0] $end
     $scope module unnamedblk1 $end
      $var wire 32 # i [31:0] $end
     $upscope $end
    $upscope $end
    $scope module ctrl $end
     $var wire  3 + ALUControl [2:0] $end
     $var wire  2 G ALUOp [1:0] $end
     $var wire  1 , ALUSrc $end
     $var wire  1 * Branch $end
     $var wire 32 '! D_WIDTH [31:0] $end
     $var wire  3 D ImmSrc [2:0] $end
     $var wire 32 C Instr [31:0] $end
     $var wire  1 - JALRctrl $end
     $var wire  1 ) Jump $end
     $var wire  1 ( MemWrite $end
     $var wire  1 & RegWrite $end
     $var wire  2 ' ResultSrc [1:0] $end
     $scope module dalu $end
      $var wire  3 + ALUControl [2:0] $end
      $var wire  2 G ALUOp [1:0] $end
      $var wire  7 K decoder [6:0] $end
      $var wire  3 I fn3 [2:0] $end
      $var wire  7 J fn7 [6:0] $end
      $var wire  7 H opcode [6:0] $end
     $upscope $end
     $scope module dmain $end
      $var wire  2 G ALUOp [1:0] $end
      $var wire  1 , ALUSrc $end
      $var wire  1 * Branch $end
      $var wire  3 D ImmSrc [2:0] $end
      $var wire 32 C Instr [31:0] $end
      $var wire  1 - JALRctrl $end
      $var wire  1 ) Jump $end
      $var wire  1 ( MemWrite $end
      $var wire  1 & RegWrite $end
      $var wire  2 ' ResultSrc [1:0] $end
      $var wire 32 '! WIDTH [31:0] $end
      $var wire  7 H opcode [6:0] $end
     $upscope $end
    $upscope $end
    $scope module extd $end
     $var wire 32 0 ImmExt [31:0] $end
     $var wire  3 D ImmSrc [2:0] $end
     $var wire 32 C Instr [31:0] $end
     $var wire 32 '! WIDTH [31:0] $end
    $upscope $end
   $upscope $end
   $scope module execute $end
    $var wire  3 + ALUControlD [2:0] $end
    $var wire  3 P ALUControlE [2:0] $end
    $var wire 32 6 ALUResultE [31:0] $end
    $var wire  1 , ALUSrcD $end
    $var wire  1 Q ALUSrcE $end
    $var wire  1 * BranchD $end
    $var wire  1 S BranchE $end
    $var wire 32 0 ImmExtD [31:0] $end
    $var wire 32 N ImmExtE [31:0] $end
    $var wire  1 - JALRctrlD $end
    $var wire  1 U JALRctrlE $end
    $var wire  1 ) JumpD $end
    $var wire  1 R JumpE $end
    $var wire  1 ( MemWriteD $end
    $var wire  1 5 MemWriteE $end
    $var wire 32 . PCD [31:0] $end
    $var wire 32 M PCE [31:0] $end
    $var wire 32 1 PCPlus4D [31:0] $end
    $var wire 32 9 PCPlus4E [31:0] $end
    $var wire  1 $ PCSrcE $end
    $var wire 32 % PCTargetE [31:0] $end
    $var wire 32 $! RD1D [31:0] $end
    $var wire 32 L RD1E [31:0] $end
    $var wire 32 %! RD2D [31:0] $end
    $var wire 32 7 RD2E [31:0] $end
    $var wire  5 / RdD [4:0] $end
    $var wire  5 8 RdE [4:0] $end
    $var wire  1 & RegWriteD $end
    $var wire  1 3 RegWriteE $end
    $var wire  2 ' ResultSrcD [1:0] $end
    $var wire  2 4 ResultSrcE [1:0] $end
    $var wire 32 O SrcBE [31:0] $end
    $var wire 32 '! WIDTH [31:0] $end
    $var wire 32 7 WriteDataE [31:0] $end
    $var wire  1 T ZeroE $end
    $var wire  1 !! clk $end
    $var wire  1 2 flush $end
    $scope module ALU $end
     $var wire  3 P ALUControlE [2:0] $end
     $var wire 32 6 ALUout [31:0] $end
     $var wire 32 L SrcAE [31:0] $end
     $var wire 32 O SrcBE [31:0] $end
     $var wire 32 '! WIDTH [31:0] $end
     $var wire  1 T ZeroE $end
    $upscope $end
   $upscope $end
   $scope module fetch $end
    $var wire 32 } InstrF [31:0] $end
    $var wire 32 | PCF [31:0] $end
    $var wire 32 ~ PCPlus4F [31:0] $end
    $var wire  1 $ PCSrcE $end
    $var wire 32 % PCTargetE [31:0] $end
    $var wire 32 '! WIDTH [31:0] $end
    $var wire  1 !! clk $end
    $var wire 32 &! nextPCF [31:0] $end
    $var wire  1 "! rst $end
    $scope module PC_Reg $end
     $var wire 32 | PCF [31:0] $end
     $var wire 32 '! WIDTH [31:0] $end
     $var wire  1 !! clk $end
     $var wire 32 &! nextPCF [31:0] $end
     $var wire  1 "! rst $end
    $upscope $end
    $scope module instrmem $end
     $var wire 32 | A [31:0] $end
     $var wire 32 )! D_WIDTH [31:0] $end
     $var wire 32 '! EXT_WIDTH [31:0] $end
     $var wire 32 } RD [31:0] $end
    $upscope $end
   $upscope $end
   $scope module memory $end
    $var wire 32 6 ALUResultE [31:0] $end
    $var wire 32 < ALUResultM [31:0] $end
    $var wire  1 5 MemWriteE $end
    $var wire  1 W MemWriteM $end
    $var wire 32 9 PCPlus4E [31:0] $end
    $var wire 32 ? PCPlus4M [31:0] $end
    $var wire  5 8 RdE [4:0] $end
    $var wire  5 > RdM [4:0] $end
    $var wire 32 = ReadDataM [31:0] $end
    $var wire  1 3 RegWriteE $end
    $var wire  1 : RegWriteM $end
    $var wire  2 4 ResultSrcE [1:0] $end
    $var wire  2 ; ResultSrcM [1:0] $end
    $var wire 32 '! WIDTH [31:0] $end
    $var wire 32 7 WriteDataE [31:0] $end
    $var wire 32 V WriteDataM [31:0] $end
    $var wire  1 !! clk $end
    $scope module datamem $end
     $var wire 32 < A [31:0] $end
     $var wire 32 )! DATA_WIDTH [31:0] $end
     $var wire 32 '! EXT_WIDTH [31:0] $end
     $var wire 32 = RD [31:0] $end
     $var wire 32 V WD [31:0] $end
     $var wire  1 W WE $end
     $var wire  1 !! clk $end
    $upscope $end
   $upscope $end
   $scope module writeback $end
    $var wire 32 < ALUResultM [31:0] $end
    $var wire 32 Y ALUResultW [31:0] $end
    $var wire 32 ? PCPlus4M [31:0] $end
    $var wire 32 [ PCPlus4W [31:0] $end
    $var wire  5 > RdM [4:0] $end
    $var wire  5 A RdW [4:0] $end
    $var wire 32 = ReadDataM [31:0] $end
    $var wire 32 Z ReadDataW [31:0] $end
    $var wire  1 : RegWriteM $end
    $var wire  1 @ RegWriteW $end
    $var wire  2 ; ResultSrcM [1:0] $end
    $var wire  2 X ResultSrcW [1:0] $end
    $var wire 32 B ResultW [31:0] $end
    $var wire 32 '! WIDTH [31:0] $end
    $var wire  1 !! clk $end
    $scope module Writeback_mux $end
     $var wire 32 Y ALUResultW [31:0] $end
     $var wire 32 [ PCPlus4W [31:0] $end
     $var wire 32 Z ReadDataW [31:0] $end
     $var wire  2 X ResultSrcW [1:0] $end
     $var wire 32 B ResultW [31:0] $end
     $var wire 32 '! WIDTH [31:0] $end
    $upscope $end
   $upscope $end
  $upscope $end
 $upscope $end
$enddefinitions $end


#0
b00000000000000000000000000000000 #
0$
b00000000000000000000000000000000 %
0&
b00 '
0(
0)
0*
b000 +
0,
0-
b00000000000000000000000000000000 .
b00000 /
b00000000000000000000000000000000 0
b00000000000000000000000000000000 1
02
03
b00 4
05
b00000000000000000000000000000000 6
b00000000000000000000000000000000 7
b00000 8
b00000000000000000000000000000000 9
0:
b00 ;
b00000000000000000000000000000000 <
b00000000000000000000000000000000 =
b00000 >
b00000000000000000000000000000000 ?
0@
b00000 A
b00000000000000000000000000000000 B
b00000000000000000000000000000000 C
b000 D
b00000 E
b00000 F
b00 G
b0000000 H
b000 I
b0000000 J
b0000000 K
b00000000000000000000000000000000 L
b00000000000000000000000000000000 M
b00000000000000000000000000000000 N
b00000000000000000000000000000000 O
b000 P
0Q
0R
0S
0T
0U
b00000000000000000000000000000000 V
0W
b00 X
b00000000000000000000000000000000 Y
b00000000000000000000000000000000 Z
b00000000000000000000000000000000 [
b00000000000000000000000000000000 \
b00000000000000000000000000000000 ]
b00000000000000000000000000000000 ^
b00000000000000000000000000000000 _
b00000000000000000000000000000000 `
b00000000000000000000000000000000 a
b00000000000000000000000000000000 b
b00000000000000000000000000000000 c
b00000000000000000000000000000000 d
b00000000000000000000000000000000 e
b00000000000000000000000000000000 f
b00000000000000000000000000000000 g
b00000000000000000000000000000000 h
b00000000000000000000000000000000 i
b00000000000000000000000000000000 j
b00000000000000000000000000000000 k
b00000000000000000000000000000000 l
b00000000000000000000000000000000 m
b00000000000000000000000000000000 n
b00000000000000000000000000000000 o
b00000000000000000000000000000000 p
b00000000000000000000000000000000 q
b00000000000000000000000000000000 r
b00000000000000000000000000000000 s
b00000000000000000000000000000000 t
b00000000000000000000000000000000 u
b00000000000000000000000000000000 v
b00000000000000000000000000000000 w
b00000000000000000000000000000000 x
b00000000000000000000000000000000 y
b00000000000000000000000000000000 z
b00000000000000000000000000000000 {
b00000000000000000000000000000000 |
b00000000000000000000000000000000 }
b00000000000000000000000000000100 ~
1!!
1"!
b00000000000000000000000000000000 #!
b00000000000000000000000000000000 $!
b00000000000000000000000000000000 %!
b00000000000000000000000000000100 &!
b00000000000000000000000000100000 '!
b00000000000000000000000000000101 (!
b00000000000000000000000000001000 )!
#1
b00000000000000000000000000100000 #
b00000000010100000000011100010011 }
0!!
#2
1&
1,
b01110 /
b00000000000000000000000000000101 0
b00000000000000000000000000000100 1
b00000000010100000000011100010011 C
b00101 F
b0010011 H
1!!
#3
0!!
#4
b00000000000000000000000000000101 %
13
b00000000000000000000000000000101 6
b01110 8
b00000000000000000000000000000100 9
b00000000000000000000000000000101 N
b00000000000000000000000000000101 O
1Q
1T
1!!
0"!
#5
0!!
#6
1:
b00000000000000000000000000000101 <
b01110 >
b00000000000000000000000000000100 ?
b00000000000000000000000000000100 |
b00000001010000000000011000010011 }
b00000000000000000000000000001000 ~
1!!
b00000000000000000000000000001000 &!
#7
0!!
#8
b00000000000000000000000000000100 .
b01100 /
b00000000000000000000000000010100 0
b00000000000000000000000000001000 1
1@
b01110 A
b00000000000000000000000000000101 B
b00000001010000000000011000010011 C
b10100 F
b00000000000000000000000000000101 Y
b00000000000000000000000000000100 [
b00000000000000000000000000001000 |
b00000000011100000000001100010011 }
b00000000000000000000000000001100 ~
1!!
b00000000000000000000000000001100 &!
#9
b00000000000000000000000000000101 j
0!!
#10
b00000000000000000000000000011000 %
b00000000000000000000000000001000 .
b00110 /
b00000000000000000000000000000111 0
b00000000000000000000000000001100 1
b00000000000000000000000000010100 6
b01100 8
b00000000000000000000000000001000 9
b00000000011100000000001100010011 C
b00111 F
b00000000000000000000000000000100 M
b00000000000000000000000000010100 N
b00000000000000000000000000010100 O
b00000000000000000000000000001100 |
b00000000000000000000011010010011 }
b00000000000000000000000000010000 ~
1!!
b00000000000000000000000000010000 &!
#11
0!!
#12
b00000000000000000000000000001111 %
b00000000000000000000000000001100 .
b01101 /
b00000000000000000000000000000000 0
b00000000000000000000000000010000 1
b00000000000000000000000000000111 6
b00110 8
b00000000000000000000000000001100 9
b00000000000000000000000000010100 <
b01100 >
b00000000000000000000000000001000 ?
b00000000000000000000011010010011 C
b00000 F
b00000000000000000000000000001000 M
b00000000000000000000000000000111 N
b00000000000000000000000000000111 O
b00000000000000000000000000010000 |
b00000000000100000000010100010011 }
b00000000000000000000000000010100 ~
1!!
b00000000000000000000000000010100 &!
#13
0!!
#14
b00000000000000000000000000001100 %
b00000000000000000000000000010000 .
b01010 /
b00000000000000000000000000000001 0
b00000000000000000000000000010100 1
b00000000000000000000000000000000 6
b01101 8
b00000000000000000000000000010000 9
b00000000000000000000000000000111 <
b00110 >
b00000000000000000000000000001100 ?
b01100 A
b00000000000000000000000000010100 B
b00000000000100000000010100010011 C
b00001 F
b00000000000000000000000000001100 M
b00000000000000000000000000000000 N
b00000000000000000000000000000000 O
0T
b00000000000000000000000000010100 Y
b00000000000000000000000000001000 [
b00000000000000000000000000010100 |
b00000111010000000000000011101111 }
b00000000000000000000000000011000 ~
1!!
b00000000000000000000000000011000 &!
#15
b00000000000000000000000000010100 h
0!!
#16
b00000000000000000000000000010001 %
b10 '
1)
b00000000000000000000000000010100 .
b00001 /
b00000000000000000000000001110100 0
b00000000000000000000000000011000 1
b00000000000000000000000000000001 6
b01010 8
b00000000000000000000000000010100 9
b00000000000000000000000000000000 <
b01101 >
b00000000000000000000000000010000 ?
b00110 A
b00000000000000000000000000000111 B
b00000111010000000000000011101111 C
b011 D
b10100 F
b1101111 H
b0000011 J
b0000010 K
b00000000000000000000000000010000 M
b00000000000000000000000000000001 N
b00000000000000000000000000000001 O
1T
b00000000000000000000000000000111 Y
b00000000000000000000000000001100 [
b00000000000000000000000000011000 |
b00000000000101101000011010010011 }
b00000000000000000000000000011100 ~
1!!
b00000000000000000000000000011100 &!
#17
b00000000000000000000000000000111 b
0!!
#18
1$
b00000000000000000000000010001000 %
b00 '
0)
b00000000000000000000000000011000 .
b01101 /
b00000000000000000000000000000001 0
b00000000000000000000000000011100 1
12
b10 4
b00000000000000000000000001110100 6
b00001 8
b00000000000000000000000000011000 9
b00000000000000000000000000000001 <
b01010 >
b00000000000000000000000000010100 ?
b01101 A
b00000000000000000000000000000000 B
b00000000000101101000011010010011 C
b000 D
b01101 E
b00001 F
b0010011 H
b0000000 J
b0000000 K
b00000000000000000000000000010100 M
b00000000000000000000000001110100 N
b00000000000000000000000001110100 O
1R
b00000000000000000000000000000000 Y
b00000000000000000000000000010000 [
b00000000000000000000000000011100 |
b00000000000101010001010100010011 }
b00000000000000000000000000100000 ~
1!!
b00000000000000000000000010001000 &!
#19
0!!
#20
0$
b00000000000000000000000000000000 %
0&
0,
b00000000000000000000000000000000 .
b00000 /
b00000000000000000000000000000000 0
b00000000000000000000000000000000 1
02
03
b00 4
b00000000000000000000000000000000 6
b00000 8
b00000000000000000000000000000000 9
b10 ;
b00000000000000000000000001110100 <
b00001 >
b00000000000000000000000000011000 ?
b01010 A
b00000000000000000000000000000001 B
b00000000000000000000000000000000 C
b00000 E
b00000 F
b0000000 H
b00000000000000000000000000000000 M
b00000000000000000000000000000000 N
b00000000000000000000000000000000 O
0Q
0R
0T
b00000000000000000000000000000001 Y
b00000000000000000000000000010100 [
b00000000000000000000000010001000 |
b00000000000000000000011110010011 }
b00000000000000000000000010001100 ~
1!!
b00000000000000000000000010001100 &!
#21
b00000000000000000000000000000001 f
0!!
b00000000000000000000000000000001 #!
#22
1&
1,
b00000000000000000000000010001000 .
b01111 /
b00000000000000000000000010001100 1
0:
b00 ;
b00000000000000000000000000000000 <
b00000 >
b00000000000000000000000000000000 ?
b00001 A
b00000000000000000000000000011000 B
b00000000000000000000011110010011 C
b0010011 H
b10 X
b00000000000000000000000001110100 Y
b00000000000000000000000000011000 [
b00000000000000000000000010001100 |
b00000000000000000000000000010011 }
b00000000000000000000000010010000 ~
1!!
b00000000000000000000000010010000 &!
#23
b00000000000000000000000000011000 ]
0!!
#24
b00000000000000000000000010001000 %
b00000000000000000000000010001100 .
b00000 /
b00000000000000000000000010010000 1
13
b01111 8
b00000000000000000000000010001100 9
0@
b00000 A
b00000000000000000000000000000000 B
b00000000000000000000000000010011 C
b00000000000000000000000010001000 M
1Q
b00 X
b00000000000000000000000000000000 Y
b00000000000000000000000000000000 [
b00000000000000000000000010010000 |
b00000000000000000000000010010100 ~
1!!
b00000000000000000000000010010100 &!
#25
0!!
#26
b00000000000000000000000010001100 %
b00000000000000000000000010010000 .
b00000000000000000000000010010100 1
b00000 8
b00000000000000000000000010010000 9
1:
b01111 >
b00000000000000000000000010001100 ?
b00000000000000000000000010001100 M
b00000000000000000000000010010100 |
b00000000000101111000011110010011 }
b00000000000000000000000010011000 ~
1!!
b00000000000000000000000010011000 &!
#27
0!!
#28
b00000000000000000000000010010000 %
b00000000000000000000000010010100 .
b01111 /
b00000000000000000000000000000001 0
b00000000000000000000000010011000 1
b00000000000000000000000010010100 9
b00000 >
b00000000000000000000000010010000 ?
1@
b01111 A
b00000000000101111000011110010011 C
b01111 E
b00001 F
b00000000000000000000000010010000 M
b00000000000000000000000010001100 [
b00000000000000000000000010011000 |
b00000000000000000000000000010011 }
b00000000000000000000000010011100 ~
1!!
b00000000000000000000000000011000 %!
b00000000000000000000000010011100 &!
#29
0!!
#30
b00000000000000000000000010010101 %
b00000000000000000000000010011000 .
b00000 /
b00000000000000000000000000000000 0
b00000000000000000000000010011100 1
b00000000000000000000000000000001 6
b00000000000000000000000000011000 7
b01111 8
b00000000000000000000000010011000 9
b00000000000000000000000010010100 ?
b00000 A
b00000000000000000000000000010011 C
b00000 E
b00000 F
b00000000000000000000000010010100 M
b00000000000000000000000000000001 N
b00000000000000000000000000000001 O
1T
b00000000000000000000000010010000 [
b00000000000000000000000010011100 |
b00000000000000000000000010100000 ~
1!!
b00000000000000000000000000000000 %!
b00000000000000000000000010100000 &!
#31
0!!
#32
b00000000000000000000000010011000 %
b00000000000000000000000010011100 .
b00000000000000000000000010100000 1
b00000000000000000000000000000000 6
b00000000000000000000000000000000 7
b00000 8
b00000000000000000000000010011100 9
b00000000000000000000000000000001 <
b01111 >
b00000000000000000000000010011000 ?
b00000000000000000000000010011000 M
b00000000000000000000000000000000 N
b00000000000000000000000000000000 O
0T
b00000000000000000000000000011000 V
b00000000000000000000000010010100 [
b00000000000000000000000010100000 |
b11111110110001111001101011100011 }
b00000000000000000000000010100100 ~
1!!
b00000000000000000000000010100100 &!
#33
0!!
#34
b00000000000000000000000010011100 %
0&
1*
b001 +
0,
b00000000000000000000000010100000 .
b10101 /
b11111111111111111111111111110100 0
b00000000000000000000000010100100 1
b00000000000000000000000010100000 9
b00000000000000000000000000000000 <
b00000 >
b00000000000000000000000010011100 ?
b01111 A
b00000000000000000000000000000001 B
b11111110110001111001101011100011 C
b010 D
b01111 E
b01100 F
b01 G
b1100011 H
b001 I
b1111111 J
b0100111 K
b00000000000000000000000010011100 M
b00000000000000000000000000000000 V
b00000000000000000000000000000001 Y
b00000000000000000000000010011000 [
b00000000000000000000000010100100 |
b00000000000000001000000001100111 }
b00000000000000000000000010101000 ~
1!!
b00000000000000000000000000010100 %!
b00000000000000000000000010101000 &!
#35
b00000000000000000000000000000001 k
0!!
b00000000000000000000000000000001 $!
#36
1$
b00000000000000000000000010010100 %
1&
b10 '
1)
0*
b000 +
1,
1-
b00000000000000000000000010100100 .
b00000 /
b00000000000000000000000000000000 0
b00000000000000000000000010101000 1
12
03
b11111111111111111111111111101101 6
b00000000000000000000000000010100 7
b10101 8
b00000000000000000000000010100100 9
b00000000000000000000000010100000 ?
b00000 A
b00000000000000000000000000000000 B
b00000000000000001000000001100111 C
b000 D
b00001 E
b00000 F
b00 G
b1100111 H
b000 I
b0000000 J
b0000010 K
b00000000000000000000000000000001 L
b00000000000000000000000010100000 M
b11111111111111111111111111110100 N
b00000000000000000000000000010100 O
b001 P
0Q
1S
1T
b00000000000000000000000000000000 Y
b00000000000000000000000010011100 [
b00000000000000000000000010101000 |
b00000000000000000000000000000000 }
b00000000000000000000000010101100 ~
1!!
b00000000000000000000000000011000 $!
b00000000000000000000000000000000 %!
b00000000000000000000000010010100 &!
#37
0!!
#38
0$
b00000000000000000000000000000000 %
0&
b00 '
0)
0,
0-
b00000000000000000000000000000000 .
b00000000000000000000000000000000 1
02
b00000000000000000000000000000000 6
b00000000000000000000000000000000 7
b00000 8
b00000000000000000000000000000000 9
0:
b11111111111111111111111111101101 <
b00000000000000000000000011100011 =
b10101 >
b00000000000000000000000010100100 ?
b00000000000000000000000000000000 C
b00000 E
b0000000 H
b0000000 K
b00000000000000000000000000000000 L
b00000000000000000000000000000000 M
b00000000000000000000000000000000 N
b00000000000000000000000000000000 O
b000 P
0S
0T
b00000000000000000000000000010100 V
b00000000000000000000000010100000 [
b00000000000000000000000010010100 |
b00000000000101111000011110010011 }
b00000000000000000000000010011000 ~
1!!
b00000000000000000000000000000000 $!
b00000000000000000000000010011000 &!
#39
0!!
#40
1&
1,
b00000000000000000000000010010100 .
b01111 /
b00000000000000000000000000000001 0
b00000000000000000000000010011000 1
b00000000000000000000000000000000 <
b00000000000000000000000000000000 =
b00000 >
b00000000000000000000000000000000 ?
0@
b10101 A
b11111111111111111111111111101101 B
b00000000000101111000011110010011 C
b01111 E
b00001 F
b0010011 H
b00000000000000000000000000000000 V
b11111111111111111111111111101101 Y
b00000000000000000000000011100011 Z
b00000000000000000000000010100100 [
b00000000000000000000000010011000 |
b00000000000000000000000000010011 }
b00000000000000000000000010011100 ~
1!!
b00000000000000000000000000000001 $!
b00000000000000000000000000011000 %!
b00000000000000000000000010011100 &!
#41
0!!
#42
b00000000000000000000000010010101 %
b00000000000000000000000010011000 .
b00000 /
b00000000000000000000000000000000 0
b00000000000000000000000010011100 1
13
b00000000000000000000000000000010 6
b00000000000000000000000000011000 7
b01111 8
b00000000000000000000000010011000 9
b00000 A
b00000000000000000000000000000000 B
b00000000000000000000000000010011 C
b00000 E
b00000 F
b00000000000000000000000000000001 L
b00000000000000000000000010010100 M
b00000000000000000000000000000001 N
b00000000000000000000000000000001 O
1Q
b00000000000000000000000000000000 Y
b00000000000000000000000000000000 Z
b00000000000000000000000000000000 [
b00000000000000000000000010011100 |
b00000000000000000000000010100000 ~
1!!
b00000000000000000000000000000000 $!
b00000000000000000000000000000000 %!
b00000000000000000000000010100000 &!
#43
0!!
#44
b00000000000000000000000010011000 %
b00000000000000000000000010011100 .
b00000000000000000000000010100000 1
b00000000000000000000000000000000 6
b00000000000000000000000000000000 7
b00000 8
b00000000000000000000000010011100 9
1:
b00000000000000000000000000000010 <
b01111 >
b00000000000000000000000010011000 ?
b00000000000000000000000000000000 L
b00000000000000000000000010011000 M
b00000000000000000000000000000000 N
b00000000000000000000000000000000 O
b00000000000000000000000000011000 V
b00000000000000000000000010100000 |
b11111110110001111001101011100011 }
b00000000000000000000000010100100 ~
1!!
b00000000000000000000000010100100 &!
#45
0!!
#46
b00000000000000000000000010011100 %
0&
1*
b001 +
0,
b00000000000000000000000010100000 .
b10101 /
b11111111111111111111111111110100 0
b00000000000000000000000010100100 1
b00000000000000000000000010100000 9
b00000000000000000000000000000000 <
b00000 >
b00000000000000000000000010011100 ?
1@
b01111 A
b00000000000000000000000000000010 B
b11111110110001111001101011100011 C
b010 D
b01111 E
b01100 F
b01 G
b1100011 H
b001 I
b1111111 J
b0100111 K
b00000000000000000000000010011100 M
b00000000000000000000000000000000 V
b00000000000000000000000000000010 Y
b00000000000000000000000010011000 [
b00000000000000000000000010100100 |
b00000000000000001000000001100111 }
b00000000000000000000000010101000 ~
1!!
b00000000000000000000000000000001 $!
b00000000000000000000000000010100 %!
b00000000000000000000000010101000 &!
#47
b00000000000000000000000000000010 k
0!!
b00000000000000000000000000000010 $!
#48
1$
b00000000000000000000000010010100 %
1&
b10 '
1)
0*
b000 +
1,
1-
b00000000000000000000000010100100 .
b00000 /
b00000000000000000000000000000000 0
b00000000000000000000000010101000 1
12
03
b11111111111111111111111111101110 6
b00000000000000000000000000010100 7
b10101 8
b00000000000000000000000010100100 9
b00000000000000000000000010100000 ?
b00000 A
b00000000000000000000000000000000 B
b00000000000000001000000001100111 C
b000 D
b00001 E
b00000 F
b00 G
b1100111 H
b000 I
b0000000 J
b0000010 K
b00000000000000000000000000000010 L
b00000000000000000000000010100000 M
b11111111111111111111111111110100 N
b00000000000000000000000000010100 O
b001 P
0Q
1S
1T
b00000000000000000000000000000000 Y
b00000000000000000000000010011100 [
b00000000000000000000000010101000 |
b00000000000000000000000000000000 }
b00000000000000000000000010101100 ~
1!!
b00000000000000000000000000011000 $!
b00000000000000000000000000000000 %!
b00000000000000000000000010010100 &!
#49
0!!
#50
0$
b00000000000000000000000000000000 %
0&
b00 '
0)
0,
0-
b00000000000000000000000000000000 .
b00000000000000000000000000000000 1
02
b00000000000000000000000000000000 6
b00000000000000000000000000000000 7
b00000 8
b00000000000000000000000000000000 9
0:
b11111111111111111111111111101110 <
b00000000000000000000000011100100 =
b10101 >
b00000000000000000000000010100100 ?
b00000000000000000000000000000000 C
b00000 E
b0000000 H
b0000000 K
b00000000000000000000000000000000 L
b00000000000000000000000000000000 M
b00000000000000000000000000000000 N
b00000000000000000000000000000000 O
b000 P
0S
0T
b00000000000000000000000000010100 V
b00000000000000000000000010100000 [
b00000000000000000000000010010100 |
b00000000000101111000011110010011 }
b00000000000000000000000010011000 ~
1!!
b00000000000000000000000000000000 $!
b00000000000000000000000010011000 &!
#51
0!!
#52
1&
1,
b00000000000000000000000010010100 .
b01111 /
b00000000000000000000000000000001 0
b00000000000000000000000010011000 1
b00000000000000000000000000000000 <
b00000000000000000000000000000000 =
b00000 >
b00000000000000000000000000000000 ?
0@
b10101 A
b11111111111111111111111111101110 B
b00000000000101111000011110010011 C
b01111 E
b00001 F
b0010011 H
b00000000000000000000000000000000 V
b11111111111111111111111111101110 Y
b00000000000000000000000011100100 Z
b00000000000000000000000010100100 [
b00000000000000000000000010011000 |
b00000000000000000000000000010011 }
b00000000000000000000000010011100 ~
1!!
b00000000000000000000000000000010 $!
b00000000000000000000000000011000 %!
b00000000000000000000000010011100 &!
#53
0!!
